0 45259
0 23467
0 36959
0 74012
0 60656
0 51148
1 81810
0 16777
0 72310
1 9951
1 49731
1 138
1 49968
1 28543
0 62341
1 88311
0 50243
0 15037
1 72591
0 66561
0 3732
0 43152
1 85570
0 74623
1 98767
1 49852
0 28367
1 337
1 89645
0 93738
0 65576
1 47143
0 79839
0 82119
0 79798
1 16061
0 38783
1 43030
0 89690
1 28112
1 91438
1 25272
1 31912
0 12948
1 30917
0 45299
1 67626
1 16682
1 2129
0 29967
0 93475
1 93602
0 81800
1 37720
0 37559
1 99619
0 33798
1 98795
0 10376
1 99455
1 5803
1 92981
1 71514
1 55478
1 54175
1 31528
1 86155
0 64292
1 24927
0 35441
0 42949
1 23134
0 75134
0 42193
0 54955
0 5830
0 75483
0 47565
0 60292
1 11539
1 71517
1 94624
0 66625
0 47617
1 27763
0 38886
0 98623
0 44323
0 62953
0 65834
0 22116
1 43231
0 72045
1 73358
1 7944
1 13284
0 92422
1 61609
0 699
1 48978
